{
  "log" : {
    "version" : "1.2",
    "creator" : {
      "name" : "BrowserMob Proxy",
      "version" : "2.1.5",
      "comment" : ""
    },
    "pages" : [ {
      "id" : "Page 0",
      "startedDateTime" : "2019-03-26T04:24:39.457Z",
      "title" : "Page 0",
      "pageTimings" : {
        "onLoad" : 685,
        "comment" : ""
      },
      "comment" : ""
    } ],
    "entries" : [ {
      "pageref" : "Page 0",
      "startedDateTime" : "2019-03-26T04:24:39.904Z",
      "request" : {
        "method" : "GET",
        "url" : "https://reqres.in/api/users?page=2",
        "httpVersion" : "HTTP/1.1",
        "cookies" : [ ],
        "headers" : [ {
          "name" : "User-Agent",
          "value" : "Katalon Studio"
        }, {
          "name" : "Host",
          "value" : "reqres.in"
        }, {
          "name" : "Accept",
          "value" : "text/html, image/gif, image/jpeg, *; q=.2, */*; q=.2"
        }, {
          "name" : "Connection",
          "value" : "keep-alive"
        } ],
        "queryString" : [ {
          "name" : "page",
          "value" : "2"
        } ],
        "headersSize" : 167,
        "bodySize" : 0,
        "comment" : ""
      },
      "response" : {
        "status" : 200,
        "statusText" : "OK",
        "httpVersion" : "HTTP/1.1",
        "cookies" : [ {
          "name" : "__cfduid",
          "value" : "d625c7ccec83471e3f24204ff3d7275c31553574279",
          "path" : "/",
          "domain" : ".reqres.in",
          "expires" : "2020-03-25T04:24:39.000Z",
          "httpOnly" : true,
          "secure" : false,
          "comment" : ""
        } ],
        "headers" : [ {
          "name" : "Date",
          "value" : "Tue, 26 Mar 2019 04:24:40 GMT"
        }, {
          "name" : "Content-Type",
          "value" : "application/json; charset=utf-8"
        }, {
          "name" : "Content-Length",
          "value" : "443"
        }, {
          "name" : "Connection",
          "value" : "keep-alive"
        }, {
          "name" : "Set-Cookie",
          "value" : "__cfduid=d625c7ccec83471e3f24204ff3d7275c31553574279; expires=Wed, 25-Mar-20 04:24:39 GMT; path=/; domain=.reqres.in; HttpOnly"
        }, {
          "name" : "X-Powered-By",
          "value" : "Express"
        }, {
          "name" : "Access-Control-Allow-Origin",
          "value" : "*"
        }, {
          "name" : "ETag",
          "value" : "W/\"1bb-wM9a6JWbwt3JpLNfwoQwxnqaC3Y\""
        }, {
          "name" : "Expect-CT",
          "value" : "max-age=604800, report-uri=\"https://report-uri.cloudflare.com/cdn-cgi/beacon/expect-ct\""
        }, {
          "name" : "Server",
          "value" : "cloudflare"
        }, {
          "name" : "CF-RAY",
          "value" : "4bd65b318bf3761e-ARN"
        } ],
        "content" : {
          "size" : 443,
          "mimeType" : "application/json; charset=utf-8",
          "text" : "{\"page\":2,\"per_page\":3,\"total\":12,\"total_pages\":4,\"data\":[{\"id\":4,\"first_name\":\"Eve\",\"last_name\":\"Holt\",\"avatar\":\"https://s3.amazonaws.com/uifaces/faces/twitter/marcoramires/128.jpg\"},{\"id\":5,\"first_name\":\"Charles\",\"last_name\":\"Morris\",\"avatar\":\"https://s3.amazonaws.com/uifaces/faces/twitter/stephenmoon/128.jpg\"},{\"id\":6,\"first_name\":\"Tracey\",\"last_name\":\"Ramos\",\"avatar\":\"https://s3.amazonaws.com/uifaces/faces/twitter/bigmancho/128.jpg\"}]}",
          "comment" : ""
        },
        "redirectURL" : "",
        "headersSize" : 538,
        "bodySize" : 443,
        "comment" : ""
      },
      "cache" : { },
      "timings" : {
        "comment" : "",
        "wait" : 230,
        "dns" : 0,
        "send" : 0,
        "connect" : 441,
        "receive" : 2,
        "blocked" : 0,
        "ssl" : 408
      },
      "serverIPAddress" : "104.27.134.11",
      "comment" : "",
      "_katalonRequestInformation" : {
        "name" : "1",
        "testObjectId" : "Object Repository/UserRestService/ListUsers",
        "harId" : "3d290c1d-b923-44ba-9a76-15dde6662a1a"
      },
      "time" : 675
    } ],
    "comment" : ""
  }
}